UCSD Political Science Math Camp - 3 Data Wrangling and Cleaning
…
mutate() changes the values of existing columns and creates new columns.

The new variable “rcid_era” takes three values, "old", "middle", and "recent" based on what range the “rcid” variable falls under.

3.4 Working with Rows

3.4.1 Filter

Dplyr’s primary function for removing rows is filter(). Like we saw when using case_when() inside mutate(), using filter() requires some practice with logical operators. The function filter() works by specifying some variable and only keeping rows in the data for which the logical operation evaluates to TRUE. Here is an example.

un_roll_calls |> 
  filter(importantvote == 1)

# A tibble: 411 × 9
    rcid session importantvote date       unres     amend  para short      descr
   <int>   <dbl>         <int> <date>     <chr>     <int> <int> <chr>      <chr>
 1  2491      38             1 1983-10-04 R/38/3        0     0 KAMPUCHEA  TO R…
 2  2492      38             1 1983-11-06 R/38/7        0     0 GRENADA, … TO D…
 3  2497      38             1 1983-11-06 R/38/29       0     0 AFGHANIST… TO D…
 4  2504      38             1 1983-12-06 R/38/39A      0     0 APARTHEID… TO A…
 5  2510      38             1 1983-12-06 R/38/39G      0     0 SOUTH AFR… TO R…
 6  2526      38             1 1983-12-06 R/38/180E     0     0 ISRAEL, I… TO O…
 7  2563      38             1 1983-12-07 R/38/187C     0     0 CHEMICAL,… TO N…
 8  2610      38             1 1983-12-03 R/38/101      0     0 HUMAN RIG… TO E…
 9  2641      39             1 1984-10-04 R/39/5        0     0 KAMPUCHEA  TO R…
10  2645      39             1 1984-11-02 R/39/13       0     0 AFGHANIST… TO R…
# … with 401 more rows
# ℹ Use `print(n = ...)` to see more rows

The original “un_roll_calls” data set object has 6202 rows, whereas this new data set only has 411 rows. This is because we filtered out any row in which the variable “importantvote” was not equal to 1. Like select(), we can extend the use of filter() in many ways.

# & for AND
un_roll_calls |> 
  filter(importantvote == 1 & session > 40)

# A tibble: 386 × 9
    rcid session importantvote date       unres     amend  para short      descr
   <int>   <dbl>         <int> <date>     <chr>     <int> <int> <chr>      <chr>
 1  2948      41             1 1986-10-03 R/41/6       NA    NA KAMPUCHEA  The …
 2  2957      41             1 1986-11-02 R/41/31      NA    NA NICARAGUA… Urge…
 3  2958      41             1 1986-11-04 R/41/33      NA    NA AFGHANIST… The …
 4  2967      41             1 1986-11-05 R/41/38      NA    NA LIBYA, U.… Decl…
 5  2968      41             1 1986-11-05 R/41/39A     NA    NA NAMIBIA, … Situ…
 6  2996      41             1 1986-12-04 R/41/58C     NA    NA CHEMICAL,… Proh…
 7  3075      41             1 1986-12-05 R/41/158     NA    NA HUMAN RIG… Ques…
 8  3078      41             1 1986-12-05 R/41/162A    NA    NA MIDDLE EA… Reaf…
 9  3098      41             1 1986-12-05 R/41/211A    NA    NA BUDGET, 1… Revi…
10  3099      41             1 1986-12-05 R/41/211B    NA    NA BUDGET, 1… Revi…
# … with 376 more rows
# ℹ Use `print(n = ...)` to see more rows

# | for OR
un_roll_calls |> 
  filter(importantvote == 1 | session > 40)

# A tibble: 3,228 × 9
    rcid session importantvote date       unres     amend  para short      descr
   <int>   <dbl>         <int> <date>     <chr>     <int> <int> <chr>      <chr>
 1  2491      38             1 1983-10-04 R/38/3        0     0 KAMPUCHEA  TO R…
 2  2492      38             1 1983-11-06 R/38/7        0     0 GRENADA, … TO D…
 3  2497      38             1 1983-11-06 R/38/29       0     0 AFGHANIST… TO D…
 4  2504      38             1 1983-12-06 R/38/39A      0     0 APARTHEID… TO A…
 5  2510      38             1 1983-12-06 R/38/39G      0     0 SOUTH AFR… TO R…
 6  2526      38             1 1983-12-06 R/38/180E     0     0 ISRAEL, I… TO O…
 7  2563      38             1 1983-12-07 R/38/187C     0     0 CHEMICAL,… TO N…
 8  2610      38             1 1983-12-03 R/38/101      0     0 HUMAN RIG… TO E…
 9  2641      39             1 1984-10-04 R/39/5        0     0 KAMPUCHEA  TO R…
10  2645      39             1 1984-11-02 R/39/13       0     0 AFGHANIST… TO R…
# … with 3,218 more rows
# ℹ Use `print(n = ...)` to see more rows

The first chunk above filters out all rows in which “importantvote” did not equal 1 AND “session” was less than 40. The second chunk above filters out all rows in which “importantvote” did not equal 1 OR “session” was less than 40.

Removing missing, or NA, values is another common job for filter(). To do this you can use the function is.na() inside filter(). The function is.na() evaluates to TRUE if the variable’s value is NA and evaluates to FALSE otherwise. Because filter() only keeps rows where the condition evaluates to TRUE, in order to remove NA values we need to negate is.na() with the ! operator. The ! operator flips the truthiness of any logical statement it precedes.

un_roll_calls |> 
  filter(!is.na(amend)) # Removing rows with NA for amend

# A tibble: 2,868 × 9
    rcid session importantvote date       unres   amend  para short        descr
   <int>   <dbl>         <int> <date>     <chr>   <int> <int> <chr>        <chr>
 1     3       1             0 1946-01-01 R/1/66      1     0 AMENDMENTS,… "TO …
 2     4       1             0 1946-01-02 R/1/79      0     0 SECURITY CO… "TO …
 3     5       1             0 1946-01-04 R/1/98      0     0 VOTING PROC… "TO …
 4     6       1             0 1946-01-04 R/1/107     0     0 DECLARATION… "TO …
 5     7       1             0 1946-01-02 R/1/295     1     0 GENERAL ASS… "TO …
 6     8       1             0 1946-01-05 R/1/297     1     0 ECOSOC POWE… "TO …
 7     9       1             0 1946-02-05 R/1/329     0     0 POST-WAR RE… "TO …
 8    10       1             0 1946-02-05 R/1/361     1     1 U.N. MEMBER… "TO …
 9    11       1             0 1946-02-05 R/1/376     0     0 TRUSTEESHIP… "TO …
10    12       1             0 1946-02-06 R/1/394     1     1 COUNCIL MEM… "TO …
# … with 2,858 more rows
# ℹ Use `print(n = ...)` to see more rows

It can be confusing to think in terms of logical statements, especially when negation is involved! But you will become more comfortable with filter() the more you practice!

Another handy logical operator is %in%. This lets you specify several values at once when checking whether to keep rows in filter().

# Cumbersome way
un_votes |> 
  filter(country == "Kenya" |
         country == "Grenada" |
         country == "Canada" |
         country == "Latvia" |
         country == "Yemen" |
         country == "Angola")

# A tibble: 23,324 × 4
    rcid country country_code vote 
   <dbl> <chr>   <chr>        <fct>
 1     3 Canada  CA           no   
 2     4 Canada  CA           no   
 3     5 Canada  CA           no   
 4     6 Canada  CA           no   
 5     7 Canada  CA           no   
 6     8 Canada  CA           yes  
 7     9 Canada  CA           yes  
 8    10 Canada  CA           yes  
 9    11 Canada  CA           yes  
10    12 Canada  CA           yes  
# … with 23,314 more rows
# ℹ Use `print(n = ...)` to see more rows

# Easier way
country_list <- c("Kenya", "Grenada", "Canada",
                  "Latvia", "Yemen", "Angola")
un_votes |> 
  filter(country %in% country_list)

# A tibble: 23,324 × 4
    rcid country country_code vote 
   <dbl> <chr>   <chr>        <fct>
 1     3 Canada  CA           no   
 2     4 Canada  CA           no   
 3     5 Canada  CA           no   
 4     6 Canada  CA           no   
 5     7 Canada  CA           no   
 6     8 Canada  CA           yes  
 7     9 Canada  CA           yes  
 8    10 Canada  CA           yes  
 9    11 Canada  CA           yes  
10    12 Canada  CA           yes  
# … with 23,314 more rows
# ℹ Use `print(n = ...)` to see more rows
…
Filtering is great for removing unwanted rows in your data. However, after using filter() the unit of analysis typically remains the same. In the code chunk above, for example, we removed most of the countries from our data, but each row in the resulting data set is still a unique country-vote observation.

Let’s say we want to reduce the data set down to the country level, rather than country-vote level, and examine the proportion of “no” votes taken by each country. We can do this in dplyr using the pair of functions group_by() and summarize(). Here is an example.

un_votes |> 
  # Creating a new numeric dummy vote variable
  mutate(vote_dummy = case_when(vote == "yes" ~ 1,
                                vote == "no" ~ 0)) |> 
  # Specify level of aggregation
  group_by(country) |> 
  # Perform the aggregation function by group
  summarize(proportion_yes_vote = mean(vote_dummy, na.rm = TRUE))

# A tibble: 200 × 2
   country           proportion_yes_vote
   <chr>                           <dbl>
 1 Afghanistan                     0.938
 2 Albania                         0.816
 3 Algeria                         0.965
 4 Andorra                         0.833
 5 Angola                          0.985
 6 Antigua & Barbuda               0.988
 7 Argentina                       0.935
 8 Armenia                         0.950
 9 Australia                       0.745
10 Austria                         0.880
# … with 190 more rows
# ℹ Use `print(n = ...)` to see more rows

The code above uses the function mean() to calculate the average value of “vote_dummy” within each country. Because “vote_dummy” takes the values 1 and 0, this average can be interpreted as a proportion of 1’s, or “yes” votes. We need to add na.rm = TRUE inside mean() to tell R to ignore NA values when calculating this average.

If we want to sort our data by the new aggregated column, we can do so using arrange() after summarize().

un_votes |> 
  mutate(vote_dummy = case_when(vote == "yes" ~ 1,
                                vote == "no" ~ 0)) |> 
  group_by(country) |> 
  summarize(proportion_yes_vote = mean(vote_dummy, na.rm = TRUE)) |> 
  arrange(proportion_yes_vote)

# A tibble: 200 × 2
   country                          proportion_yes_vote
   <chr>                                          <dbl>
 1 United States                                  0.369
 2 Israel                                         0.464
 3 Palau                                          0.541
 4 Micronesia (Federated States of)               0.604
 5 United Kingdom                                 0.616
 6 Marshall Islands                               0.659
 7 France                                         0.662
 8 Federal Republic of Germany                    0.682
 9 Canada                                         0.701
10 Belgium                                        0.714
# … with 190 more rows
# ℹ Use `print(n = ...)` to see more rows
…
3.5 Merging Data

So far we have only been working with one data set at a time.

un_votes |> 
  left_join(un_roll_calls, by = "rcid")

# A tibble: 869,937 × 12
    rcid country      count…¹ vote  session impor…² date       unres amend  para
   <dbl> <chr>        <chr>   <fct>   <dbl>   <int> <date>     <chr> <int> <int>
 1     3 United Stat… US      yes         1       0 1946-01-01 R/1/…     1     0
 2     3 Canada       CA      no          1       0 1946-01-01 R/1/…     1     0
 3     3 Cuba         CU      yes         1       0 1946-01-01 R/1/…     1     0
 4     3 Haiti        HT      yes         1       0 1946-01-01 R/1/…     1     0
 5     3 Dominican R… DO      yes         1       0 1946-01-01 R/1/…     1     0
 6     3 Mexico       MX      yes         1       0 1946-01-01 R/1/…     1     0
 7     3 Guatemala    GT      yes         1       0 1946-01-01 R/1/…     1     0
 8     3 Honduras     HN      yes         1       0 1946-01-01 R/1/…     1     0
 9     3 El Salvador  SV      yes         1       0 1946-01-01 R/1/…     1     0
10     3 Nicaragua    NI      yes         1       0 1946-01-01 R/1/…     1     0
# … with 869,927 more rows, 2 more variables: short <chr>, descr <chr>, and
#   abbreviated variable names ¹​country_code, ²​importantvote
# ℹ Use `print(n = ...)` to see more rows, and `colnames()` to see all variable names

un_votes |> 
  left_join(un_roll_call_issues, by = "rcid")

# A tibble: 1,123,334 × 6
    rcid country            country_code vote  short_name issue
   <dbl> <chr>              <chr>        <fct> <chr>      <fct>
 1     3 United States      US           yes   <NA>       <NA> 
 2     3 Canada             CA           no    <NA>       <NA> 
 3     3 Cuba               CU           yes   <NA>       <NA> 
 4     3 Haiti              HT           yes   <NA>       <NA> 
 5     3 Dominican Republic DO           yes   <NA>       <NA> 
 6     3 Mexico             MX           yes   <NA>       <NA> 
 7     3 Guatemala          GT           yes   <NA>       <NA> 
 8     3 Honduras           HN           yes   <NA>       <NA> 
 9     3 El Salvador        SV           yes   <NA>       <NA> 
10     3 Nicaragua          NI           yes   <NA>       <NA> 
# … with 1,123,324 more rows
# ℹ Use `print(n = ...)` to see more rows

un_roll_calls |> 
  left_join(un_roll_call_issues)

Joining, by = "rcid"

# A tibble: 7,848 × 11
    rcid session import…¹ date       unres amend  para short descr short…² issue
   <int>   <dbl>    <int> <date>     <chr> <int> <int> <chr> <chr> <chr>   <fct>
 1     3       1        0 1946-01-01 R/1/…     1     0 AMEN… "TO … <NA>    <NA> 
 2     4       1        0 1946-01-02 R/1/…     0     0 SECU… "TO … <NA>    <NA> 
 3     5       1        0 1946-01-04 R/1/…     0     0 VOTI… "TO … <NA>    <NA> 
 4     6       1        0 1946-01-04 R/1/…     0     0 DECL… "TO … hr      Huma…
 5     7       1        0 1946-01-02 R/1/…     1     0 GENE… "TO … <NA>    <NA> 
 6     8       1        0 1946-01-05 R/1/…     1     0 ECOS… "TO … ec      Econ…
 7     9       1        0 1946-02-05 R/1/…     0     0 POST… "TO … <NA>    <NA> 
 8    10       1        0 1946-02-05 R/1/…     1     1 U.N.… "TO … <NA>    <NA> 
 9    11       1        0 1946-02-05 R/1/…     0     0 TRUS… "TO … co      Colo…
10    11       1        0 1946-02-05 R/1/…     0     0 TRUS… "TO … ec      Econ…
# … with 7,838 more rows, and abbreviated variable names ¹​importantvote,
#   ²​short_name
# ℹ Use `print(n = ...)` to see more rows
…
long_un_votes <- wide_un_votes |> 
  pivot_longer(cols = -rcid,
               names_to = "country",
               values_to = "vote")

long_un_votes

# A tibble: 1,240,400 × 3
    rcid country            vote 
   <dbl> <chr>              <fct>
 1     3 United States      yes  
 2     3 Canada             no   
 3     3 Cuba               yes  
 4     3 Haiti              yes  
 5     3 Dominican Republic yes  
 6     3 Mexico             yes  
 7     3 Guatemala          yes  
 8     3 Honduras           yes  
 9     3 El Salvador        yes  
10     3 Nicaragua          yes  
# … with 1,240,390 more rows
# ℹ Use `print(n = ...)` to see more rows
…
