UCSD Political Science Math Camp - 4 Loops and Simulation
…
Alternatively, we can use sample_frac() to specify how many random rows to draw based on a proportion of total rows.

county_elections |> 
  sample_frac(size = 0.01) # Return 1% of the final data

# A tibble: 31 × 27
   state_abbrv county    count…¹ trump16 clint…² other…³ romne…⁴ obama12 other…⁵
   <chr>       <chr>       <dbl>   <dbl>   <dbl>   <dbl>   <dbl>   <dbl>   <dbl>
 1 IN          Lawrence    18093   14035    4210     907   11622    5779     421
 2 WY          Hot Spri…   56017    1939     400     247    1895     523      97
 3 SC          Greenwood   45047   16961   10711    1091   16348   11972     352
 4 SC          Lancaster   45057   23719   13812    1407   19333   13419     392
 5 NC          Tyrrell     37177     975     720      44     930     837      16
 6 NC          Robeson     37155   20762   19016    1080   17510   24988     448
 7 IN          Posey       18129    8404    3521     542    7430    4533     263
 8 OH          Ross        39141   18652   10356    1372   15008   14569     506
 9 NE          Kearney     31099    2531     550     215    2349     773      58
10 CT          Middlesex    9007   38867   45357    4400   34591   47855    1092
# … with 21 more rows, 18 more variables: total_population <dbl>, cvap <dbl>,
#   white_pct <dbl>, black_pct <dbl>, hispanic_pct <dbl>, nonwhite_pct <dbl>,
#   foreignborn_pct <dbl>, female_pct <dbl>, age29andunder_pct <dbl>,
#   age65andolder_pct <dbl>, median_hh_inc <dbl>, clf_unemploy_pct <dbl>,
#   lesshs_pct <dbl>, lesscollege_pct <dbl>, lesshs_whites_pct <dbl>,
#   lesscollege_whites_pct <dbl>, rural_pct <dbl>, ruralurban_cc <dbl>, and
#   abbreviated variable names ¹​countyCode, ²​clinton16, ³​otherpres16, …
# ℹ Use `print(n = ...)` to see more rows, and `colnames()` to see all variable names

Performing stratified sampling is very easy using the group_by() function we introduced in the last chapter. The code below draws one random row (i.e. county) from each US state.

county_elections |> 
  group_by(state_abbrv) |> 
  sample_n(1)

# A tibble: 50 × 27
# Groups:   state_abbrv [50]
   state_abbrv county    count…¹ trump16 clint…² other…³ romne…⁴ obama12 other…⁵
   <chr>       <chr>       <dbl>   <dbl>   <dbl>   <dbl>   <dbl>   <dbl>   <dbl>
 1 AL          Madison      1089   89520   62822   11047   90884   62015    2160
 2 AR          White        5145   21077    5170     972   20011    5765     738
 3 AZ          Yuma         4027   25165   24605    3240   23352   18059     542
 4 CA          Mariposa     6043    5185    3122     570    5140    3498     362
 5 CO          Pueblo       8101   36265   35875    6506   31894   42551    1749
 6 CT          Middlesex    9007   38867   45357    4400   34591   47855    1092
 7 DC          District…   11001   12723  282830   15715   21381  267070    5313
 8 DE          New Cast…   10003   85525  162919   13947   81230  167082    3700
 9 FL          Okaloosa    12091   71893   23780    5182   70168   23421    1209
10 GA          Jefferson   13163    3063    3821      84    2999    4261      38
# … with 40 more rows, 18 more variables: total_population <dbl>, cvap <dbl>,
#   white_pct <dbl>, black_pct <dbl>, hispanic_pct <dbl>, nonwhite_pct <dbl>,
#   foreignborn_pct <dbl>, female_pct <dbl>, age29andunder_pct <dbl>,
#   age65andolder_pct <dbl>, median_hh_inc <dbl>, clf_unemploy_pct <dbl>,
#   lesshs_pct <dbl>, lesscollege_pct <dbl>, lesshs_whites_pct <dbl>,
#   lesscollege_whites_pct <dbl>, rural_pct <dbl>, ruralurban_cc <dbl>, and
#   abbreviated variable names ¹​countyCode, ²​clinton16, ³​otherpres16, …
# ℹ Use `print(n = ...)` to see more rows, and `colnames()` to see all variable names
…
